{
    "LimeLight":{
        "create_prospect":{
            "campaignId":["required"],
            "email":["required"],
            "ipAddress":["required"],
            "firstName":["required"],
            "lastName":["required"],
            "address1":["required"],
            "address2":[],
            "city":["required"],
            "state":["required"],
            "zip":["required"],
            "country":["required"],
            "phone":["required"],
            "AFID":[],
            "SID":[],
            "AFFID":[],
            "C1":[],
            "C2":[],
            "C3":[],
            "AID":[],
            "OPT":[],
            "click_id":[],
            "notes":[]
        },
        "create_prospect_with_order":{
            "prospectId":["required"],
            "creditCardNumber":["required"],
            "expirationDate":["required"],
            "cvv":["required"],
            "creditCardType":["required"],
            "shippingId":[],
            "tranType":[],
            "ipAddress":[],
            "campaignId":[],
            "offers":[],
            "gift":[],
            "conversion_id":[],
            "notes":[],
            "AFID":[],
            "SID":[],
            "AFFID":[],
            "C1":[],
            "C2":[],
            "C3":[],
            "AID":[],
            "OPT":[],
            "click_id":[],            
            "forceGatewayId":[],
            "preserve_force_gateway":[],
            "thm_session_id":[],
            "total_installments":[],
            "alt_pay_token":[],
            "alt_pay_payer_id":[],
            "secretSSN":[],
            "promoCode":[],
            "temp_customer_id":[],
            "three_d_redirect_url":[],
            "alt_pay_return_url":[],
            "sessionId":[],
            "cascade_override":[],
            "ssn_nmi":[],
            "utm_source":[],
            "utm_medium":[],
            "utm_campaign":[],
            "utm_content":[],
            "utm_term":[],
            "device_category":[],
            "checkingAccountNumber":[],
            "checkingRoutingNumber":[],
            "sepa_iban":[],
            "sepa_bic":[],
            "eurodebit_acct_num":[],
            "eurodebit_route_num":[],
            "referrer_id" : [],
            "cavv" :[],
            "eci" : [],
            "xid" : []
        },
        "new_order_with_user":{
            "previousOrderId":["required"],
            "shippingId":["required"],
            "ipAddress":["required"],
            "campaignId":["required"],
            "notes":[],
            "AFID":[],
            "SID":[],
            "AFFID":[],
            "C1":[],
            "C2":[],
            "C3":[],
            "AID":[],
            "OPT":[],
            "click_id":[],
            "forceGatewayId":[],
            "preserve_force_gateway":[],
            "promoCode":[],
            "temp_customer_id":[],
            "sessionId":[],
            "cascade_override":[],
            "utm_source":[],
            "utm_medium":[],
            "utm_campaign":[],
            "utm_content":[],
            "utm_term":[],
            "device_category":[],
            "referrer_id" : [],
            "conversion_id" : [],
            "cavv" : [],
            "eci" : [],
            "xid" : []
        },
        "create_upsell_order":{
            "previousOrderId":["required"],
            "shippingId":["required"],
            "ipAddress":["required"],
            "campaignId":["required"],
            "notes":[],
            "AFID":[],
            "SID":[],
            "AFFID":[],
            "C1":[],
            "C2":[],
            "C3":[],
            "AID":[],
            "OPT":[],
            "click_id":[],
            "forceGatewayId":[],
            "preserve_force_gateway":[],
            "promoCode":[],
            "temp_customer_id":[],
            "sessionId":[],
            "cascade_override":[],
            "utm_source":[],
            "utm_medium":[],
            "utm_campaign":[],
            "utm_content":[],
            "utm_term":[],
            "device_category":[],
            "referrer_id" : [],
            "conversion_id" : [],
            "cavv" : [],
            "eci" : [],
            "xid" : []
        },
        "onepage_checkout":{
            "firstName":["required"],
            "lastName":["required"],
            "billingFirstName":[""],
            "billingLastName":[""],
            "billingAddress1":[""],
            "billingAddress2":[""],
            "billingCity":[""],
            "billingState":[""],
            "billingZip":[""],
            "billingCountry":[""],
            "phone":["required"],
            "email":["required"],
            "creditCardType":["required"],
            "creditCardNumber":[""],
            "expirationDate":[""],
            "CVV":[""],
            "shippingId":["required"],
            "tranType":["required"],
            "ipAddress":["required"],
            "campaignId":["required"],
            "notes":[],
            "AFID":["required"],
            "SID":[],
            "AFFID":[],
            "C1":[],
            "C2":[],
            "C3":[],
            "AID":[],
            "OPT":[],
            "click_id":[],
            "billingSameAsShipping":[],
            "shippingAddress1":[],
            "shippingAddress2":[],
            "shippingCity":[],
            "shippingState":[],
            "shippingZip":[],
            "shippingCountry":[],
            "forceGatewayId":[],
            "preserve_force_gateway":[],
            "thm_session_id":[],
            "total_installments":[],
            "alt_pay_token":[],
            "alt_pay_payer_id":[],
            "secretSSN":[],
            "promoCode":[],
            "temp_customer_id":[],
            "three_d_redirect_url":[],
            "alt_pay_return_url":[],
            "sessionId":[],
            "cascade_override":[],
            "create_member":[],
            "event_id":[],
            "ssn_nmi":[],
            "utm_source":[],
            "utm_medium":[],
            "utm_campaign":[],
            "utm_content":[],
            "utm_term":[],
            "device_category":[],
            "checkingAccountNumber":[],
            "checkingRoutingNumber":[],
            "sepa_iban":[],
            "sepa_bic":[],
            "eurodebit_acct_num":[],
            "eurodebit_route_num":[],
            "referrer_id" : [],
            "conversion_id" : [],
            "cavv" : [],
            "eci" : [],
            "xid" : []
        }
    }
}
